[ENGINE]
 
#DO NOT CHANGE THIS.
Response File Version=1.0.0.0.0
 
[GENERIC]
 
#The oracle home location. This can be an existing Oracle Home or a new Oracle Home
ORACLE_HOME=/opt/oracle/product/middleware
 
#Set this variable value to the Installation Type selected. e.g. Fusion Middleware Infrastructure, Fusion Middleware Infrastructure With Examples.
INSTALL_TYPE=Fusion Middleware Infrastructure
 
#Provide the My Oracle Support Username. If you wish to ignore Oracle Configuration Manager configuration provide empty string for user name.
MYORACLESUPPORT_USERNAME=
 
#Provide the My Oracle Support Password
MYORACLESUPPORT_PASSWORD=<SECURE VALUE>
 
#Set this to true if you wish to decline the security updates. Setting this to true and providing empty string for My Oracle Support username will ignore the Oracle Configuration Manager configuration
DECLINE_SECURITY_UPDATES=true
 
#Set this to true if My Oracle Support Password is specified
SECURITY_UPDATES_VIA_MYORACLESUPPORT=false
 
#Provide the Proxy Host
PROXY_HOST=
 
#Provide the Proxy Port
PROXY_PORT=
 
#Provide the Proxy Username
PROXY_USER=
 
#Provide the Proxy Password
PROXY_PWD=<SECURE VALUE>
 
#Type String (URL format) Indicates the OCM Repeater URL which should be of the format [scheme[Http/Https]]://[repeater host]:[repeater port]
COLLECTOR_SUPPORTHUB_URL=
